<?xml version="1.0" encoding="UTF-8" standalone="no"?>
<svg
   xmlns:dc="http://purl.org/dc/elements/1.1/"
   xmlns:cc="http://creativecommons.org/ns#"
   xmlns:rdf="http://www.w3.org/1999/02/22-rdf-syntax-ns#"
   xmlns:svg="http://www.w3.org/2000/svg"
   xmlns="http://www.w3.org/2000/svg"
   xmlns:xlink="http://www.w3.org/1999/xlink"
   xmlns:sodipodi="http://sodipodi.sourceforge.net/DTD/sodipodi-0.dtd"
   xmlns:inkscape="http://www.inkscape.org/namespaces/inkscape"
   sodipodi:docname="papam.svg"
   inkscape:version="1.0.2 (e86c870879, 2021-01-15)"
   id="svg8"
   version="1.1"
   viewBox="0 0 100 100"
   height="10cm"
   width="10cm">
  <defs
     id="defs2">
    <linearGradient
       inkscape:collect="always"
       id="linearGradient932">
      <stop
         style="stop-color:#818181;stop-opacity:1"
         offset="0"
         id="stop928" />
      <stop
         style="stop-color:#ffffff;stop-opacity:1"
         offset="1"
         id="stop930" />
    </linearGradient>
    <linearGradient
       inkscape:collect="always"
       id="linearGradient895">
      <stop
         style="stop-color:#0ddfff;stop-opacity:1"
         offset="0"
         id="stop891" />
      <stop
         style="stop-color:#066573;stop-opacity:1"
         offset="1"
         id="stop893" />
    </linearGradient>
    <inkscape:perspective
       sodipodi:type="inkscape:persp3d"
       inkscape:vp_x="0 : 50 : 1"
       inkscape:vp_y="0 : 1000 : 0"
       inkscape:vp_z="100 : 50 : 1"
       inkscape:persp3d-origin="50 : 33.333333 : 1"
       id="perspective45" />
    <linearGradient
       inkscape:collect="always"
       xlink:href="#linearGradient895"
       id="linearGradient897"
       x1="-40.327087"
       y1="-2.468384"
       x2="-40.393692"
       y2="88.21167"
       gradientUnits="userSpaceOnUse"
       gradientTransform="matrix(4.0440692,0,0,4.0440692,348.95009,13.373355)" />
    <linearGradient
       inkscape:collect="always"
       xlink:href="#linearGradient932"
       id="linearGradient934"
       x1="48.843842"
       y1="99.169609"
       x2="49.785648"
       y2="69.714081"
       gradientUnits="userSpaceOnUse"
       gradientTransform="matrix(1.598522,0,0,1.598522,3.2779622,-114.09239)" />
  </defs>
  <sodipodi:namedview
     id="base"
     pagecolor="#ffffff"
     bordercolor="#666666"
     borderopacity="1.0"
     inkscape:pageopacity="0.0"
     inkscape:pageshadow="2"
     inkscape:zoom="0.53052785"
     inkscape:cx="-288.64821"
     inkscape:cy="305.29221"
     inkscape:document-units="px"
     inkscape:current-layer="layer2"
     inkscape:document-rotation="0"
     showgrid="false"
     units="cm"
     inkscape:window-width="1920"
     inkscape:window-height="1025"
     inkscape:window-x="0"
     inkscape:window-y="27"
     inkscape:window-maximized="1" />
  <metadata
     id="metadata5">
    <rdf:RDF>
      <cc:Work
         rdf:about="">
        <dc:format>image/svg+xml</dc:format>
        <dc:type
           rdf:resource="http://purl.org/dc/dcmitype/StillImage" />
        <dc:title />
      </cc:Work>
    </rdf:RDF>
  </metadata>
  <g
     inkscape:groupmode="layer"
     id="layer4"
     inkscape:label="background image 1"
     style="display:inline" />
  <g
     inkscape:groupmode="layer"
     id="layer2"
     inkscape:label="background image"
     style="display:inline">
    <path
       id="path861-3"
       style="display:inline;fill:url(#linearGradient897);fill-opacity:1;stroke-width:0.993392"
       d="M 189.5625 1.8300781 A 187.02964 187.02964 0 0 0 3.0683594 188.85938 A 187.02964 187.02964 0 0 0 26.849609 280.12695 L 26.849609 217.27734 L 62.644531 217.27734 C 76.2374 217.27734 86.561342 220.21518 93.613281 226.0918 C 100.71632 231.91731 104.26758 240.63054 104.26758 252.23047 C 104.26758 264.29031 100.48482 273.51472 92.921875 279.90234 C 85.410027 286.28997 74.706115 289.48242 60.806641 289.48242 L 50.611328 289.48242 L 50.611328 313.45312 A 187.02964 187.02964 0 0 0 190.09961 375.88867 A 187.02964 187.02964 0 0 0 331.38477 311.4082 L 331.38477 276.29883 C 331.38477 273.79488 331.41179 270.90914 331.46289 267.63867 C 331.56509 264.36821 331.92194 255.68005 332.53516 241.57617 L 331.8457 241.57617 L 302.94727 329.3418 L 281.17969 329.3418 L 254.19727 241.42383 L 253.50781 241.42383 C 254.47873 259.30918 254.96484 271.23993 254.96484 277.21875 L 254.96484 329.3418 L 233.73242 329.3418 L 233.73242 217.27734 L 266.07812 217.27734 L 292.59961 302.97461 L 293.06055 302.97461 L 321.19141 217.27734 L 353.53711 217.27734 L 353.53711 279.78906 A 187.02964 187.02964 0 0 0 377.12891 188.85938 A 187.02964 187.02964 0 0 0 190.09961 1.8300781 A 187.02964 187.02964 0 0 0 189.5625 1.8300781 z M 234.68555 45.453125 C 246.18327 45.453125 254.99874 47.956945 261.13086 52.964844 C 267.26298 57.972743 270.32812 65.586439 270.32812 75.806641 L 270.32812 132.91211 L 254.00195 132.91211 L 249.47852 121.26172 L 248.86523 121.26172 C 244.93046 126.21852 240.86802 129.66754 236.67773 131.60938 C 232.53855 133.50011 227.12197 134.44531 220.42773 134.44531 C 212.20047 134.44531 205.71138 132.09582 200.95898 127.39453 C 196.25769 122.69324 193.90625 115.99772 193.90625 107.31055 C 193.90625 98.214567 197.07558 91.521 203.41211 87.228516 C 209.79974 82.88493 219.40607 80.483347 232.23242 80.023438 L 247.10352 79.5625 L 247.10352 75.806641 C 247.10352 67.119469 242.6572 62.777344 233.76562 62.777344 C 226.91809 62.777344 218.87038 64.847146 209.62109 68.986328 L 201.87891 53.195312 C 211.7414 48.03411 222.67681 45.453125 234.68555 45.453125 z M 147.91602 45.607422 C 158.03402 45.607422 165.95442 49.51553 171.67773 57.333984 C 177.40105 65.152439 180.26367 76.012635 180.26367 89.912109 C 180.26367 99.05919 178.90757 107.00467 176.19922 113.75 C 173.54197 120.49533 169.73609 125.63028 164.7793 129.15625 C 159.8225 132.68222 153.99697 134.44531 147.30273 134.44531 C 137.23584 134.44531 129.3405 130.79182 123.61719 123.48438 L 122.39062 123.48438 C 123.20824 130.63852 123.61719 134.77812 123.61719 135.90234 L 123.61719 170.625 L 100.23828 170.625 L 100.23828 47.216797 L 119.24805 47.216797 L 122.54492 58.330078 L 123.61719 58.330078 C 129.085 49.84731 137.1848 45.607422 147.91602 45.607422 z M 140.4043 64.310547 C 134.62988 64.310547 130.41311 66.098711 127.75586 69.675781 C 125.09861 73.201751 123.71939 79.052354 123.61719 87.228516 L 123.61719 89.757812 C 123.61719 98.955994 124.97133 105.54732 127.67969 109.5332 C 130.43914 113.51908 134.78322 115.51367 140.71094 115.51367 C 151.18664 115.51367 156.42383 106.87761 156.42383 89.605469 C 156.42383 81.173802 155.12178 74.862158 152.51562 70.671875 C 149.96057 66.430491 145.92321 64.310547 140.4043 64.310547 z M 247.10352 93.207031 L 238.05859 93.513672 C 231.26216 93.718076 226.20243 94.944915 222.88086 97.193359 C 219.55929 99.441804 217.89844 102.86575 217.89844 107.46484 C 217.89844 114.05687 221.67924 117.35352 229.24219 117.35352 C 234.65889 117.35352 238.9779 115.7949 242.19727 112.67773 C 245.46773 109.56057 247.10352 105.42097 247.10352 100.25977 L 247.10352 93.207031 z M 150.87109 216.81836 L 179.92188 216.81836 L 219.62695 329.3418 L 194.02539 329.3418 L 185.90039 302.66797 L 145.04492 302.66797 L 136.91992 329.3418 L 111.31836 329.3418 L 150.87109 216.81836 z M 165.51172 234.2168 C 163.82539 240.75773 158.99715 256.93227 151.02539 282.73828 L 180.22852 282.73828 C 172.71667 258.5675 168.47483 244.89678 167.50391 241.72852 C 166.58409 238.56025 165.92053 236.05643 165.51172 234.2168 z M 50.611328 236.74805 L 50.611328 270.01367 L 58.429688 270.01367 C 65.737132 270.01367 71.205813 268.58236 74.833984 265.7207 C 78.462156 262.80795 80.275391 258.59313 80.275391 253.07422 C 80.275391 247.50421 78.741842 243.38967 75.675781 240.73242 C 72.660822 238.07517 67.90975 236.74805 61.419922 236.74805 L 50.611328 236.74805 z "
       transform="scale(0.26458333)" />
  </g>
  <g
     inkscape:label="text"
     inkscape:groupmode="layer"
     id="layer1"
     style="display:inline" />
</svg>
